{
	"info": {
		"_postman_id": "106c7240-9765-43d2-8938-ec661e383a42",
		"name": "RENTAL_MOVIE",
		"schema": "https://schema.getpostman.com/json/collection/v2.1.0/collection.json"
	},
	"item": [
		{
			"name": "register admin",
			"request": {
				"method": "POST",
				"header": [],
				"body": {
					"mode": "formdata",
					"formdata": [
						{
							"key": "name",
							"value": "admin",
							"type": "text"
						},
						{
							"key": "email",
							"value": "admin@gmail.com",
							"type": "text"
						},
						{
							"key": "password",
							"value": "123456",
							"type": "text"
						},
						{
							"key": "role",
							"value": "admin",
							"type": "text"
						}
					],
					"options": {
						"formdata": {}
					}
				},
				"url": {
					"raw": "http://127.0.0.1:8000/api/register",
					"protocol": "http",
					"host": [
						"127",
						"0",
						"0",
						"1"
					],
					"port": "8000",
					"path": [
						"api",
						"register"
					]
				}
			},
			"response": []
		},
		{
			"name": "register client",
			"request": {
				"method": "POST",
				"header": [],
				"body": {
					"mode": "formdata",
					"formdata": [
						{
							"key": "name",
							"value": "lolo",
							"type": "text"
						},
						{
							"key": "email",
							"value": "lolo@gmail.com",
							"type": "text"
						},
						{
							"key": "password",
							"value": "123456",
							"type": "text"
						},
						{
							"key": "role",
							"value": "client",
							"type": "text"
						}
					],
					"options": {
						"formdata": {}
					}
				},
				"url": {
					"raw": "http://127.0.0.1:8000/api/register",
					"protocol": "http",
					"host": [
						"127",
						"0",
						"0",
						"1"
					],
					"port": "8000",
					"path": [
						"api",
						"register"
					]
				},
				"description": "user registration"
			},
			"response": []
		},
		{
			"name": "login",
			"request": {
				"method": "POST",
				"header": [],
				"body": {
					"mode": "raw",
					"raw": "{\r\n    \"email\" : \"admin@gmail.com\",\r\n    \"password\" : \"123456\"\r\n}",
					"options": {
						"raw": {
							"language": "json"
						}
					}
				},
				"url": {
					"raw": "http://127.0.0.1:8000/api/login",
					"protocol": "http",
					"host": [
						"127",
						"0",
						"0",
						"1"
					],
					"port": "8000",
					"path": [
						"api",
						"login"
					]
				},
				"description": "user login"
			},
			"response": []
		},
		{
			"name": "logout",
			"request": {
				"method": "GET",
				"header": [],
				"url": {
					"raw": "http://127.0.0.1:8000/api/logout?token=eyJ0eXAiOiJKV1QiLCJhbGciOiJIUzI1NiJ9.eyJpc3MiOiJodHRwOlwvXC8xMjcuMC4wLjE6ODAwMFwvYXBpXC9yZWdpc3RlciIsImlhdCI6MTU5MjA4MDQ0NSwiZXhwIjoxNTkyMDg0MDQ1LCJuYmYiOjE1OTIwODA0NDUsImp0aSI6IkFScFFJRkpiVTJHU2pQeksiLCJzdWIiOjE5LCJwcnYiOiI4N2UwYWYxZWY5ZmQxNTgxMmZkZWM5NzE1M2ExNGUwYjA0NzU0NmFhIn0.KJbXl8weC8_ZeXC8WHe9S-F9FV5QBBAsS0j0nd7Tqnw",
					"protocol": "http",
					"host": [
						"127",
						"0",
						"0",
						"1"
					],
					"port": "8000",
					"path": [
						"api",
						"logout"
					],
					"query": [
						{
							"key": "token",
							"value": "eyJ0eXAiOiJKV1QiLCJhbGciOiJIUzI1NiJ9.eyJpc3MiOiJodHRwOlwvXC8xMjcuMC4wLjE6ODAwMFwvYXBpXC9yZWdpc3RlciIsImlhdCI6MTU5MjA4MDQ0NSwiZXhwIjoxNTkyMDg0MDQ1LCJuYmYiOjE1OTIwODA0NDUsImp0aSI6IkFScFFJRkpiVTJHU2pQeksiLCJzdWIiOjE5LCJwcnYiOiI4N2UwYWYxZWY5ZmQxNTgxMmZkZWM5NzE1M2ExNGUwYjA0NzU0NmFhIn0.KJbXl8weC8_ZeXC8WHe9S-F9FV5QBBAsS0j0nd7Tqnw"
						}
					]
				}
			},
			"response": []
		},
		{
			"name": "save movie",
			"request": {
				"method": "POST",
				"header": [],
				"body": {
					"mode": "raw",
					"raw": "  {\r\n    \"title\" :  \"naruto the last\",\r\n    \"description\": \"naruto last movie\",\r\n    \"stock\" : 10,\r\n    \"rental_price\" : 5,\r\n    \"sale_price\" : 25,\r\n    \"penalty_by_day\" : 3,\r\n    \"availability\" : true,\r\n    \"img_url\" : \"http://google.com/search?tbm=isch&q=The+Last:+Naruto+the+Movie\"\r\n           \r\n}",
					"options": {
						"raw": {
							"language": "json"
						}
					}
				},
				"url": {
					"raw": "http://127.0.0.1:8000/api/movies?token=eyJ0eXAiOiJKV1QiLCJhbGciOiJIUzI1NiJ9.eyJpc3MiOiJodHRwOlwvXC8xMjcuMC4wLjE6ODAwMFwvYXBpXC9sb2dpbiIsImlhdCI6MTU5MjI5MDc5NSwiZXhwIjoxNTkyMjk0Mzk1LCJuYmYiOjE1OTIyOTA3OTUsImp0aSI6IlphbWpTa05mNEVYVWlUVnQiLCJzdWIiOjQsInBydiI6Ijg3ZTBhZjFlZjlmZDE1ODEyZmRlYzk3MTUzYTE0ZTBiMDQ3NTQ2YWEifQ.SU_eo6ncIAKAbzInv0zV8IXO0spxaQYdCaA2y7Wr1yg",
					"protocol": "http",
					"host": [
						"127",
						"0",
						"0",
						"1"
					],
					"port": "8000",
					"path": [
						"api",
						"movies"
					],
					"query": [
						{
							"key": "token",
							"value": "eyJ0eXAiOiJKV1QiLCJhbGciOiJIUzI1NiJ9.eyJpc3MiOiJodHRwOlwvXC8xMjcuMC4wLjE6ODAwMFwvYXBpXC9sb2dpbiIsImlhdCI6MTU5MjI5MDc5NSwiZXhwIjoxNTkyMjk0Mzk1LCJuYmYiOjE1OTIyOTA3OTUsImp0aSI6IlphbWpTa05mNEVYVWlUVnQiLCJzdWIiOjQsInBydiI6Ijg3ZTBhZjFlZjlmZDE1ODEyZmRlYzk3MTUzYTE0ZTBiMDQ3NTQ2YWEifQ.SU_eo6ncIAKAbzInv0zV8IXO0spxaQYdCaA2y7Wr1yg"
						}
					]
				}
			},
			"response": []
		},
		{
			"name": "getAllMovies",
			"request": {
				"method": "GET",
				"header": [],
				"url": {
					"raw": "http://127.0.0.1:8000/api/movies?token=eyJ0eXAiOiJKV1QiLCJhbGciOiJIUzI1NiJ9.eyJpc3MiOiJodHRwOlwvXC8xMjcuMC4wLjE6ODAwMFwvYXBpXC9sb2dpbiIsImlhdCI6MTU5MjI4NDc2NiwiZXhwIjoxNTkyMjg4MzY2LCJuYmYiOjE1OTIyODQ3NjYsImp0aSI6ImVvbnBpQ3BiU0NUbGhoQnEiLCJzdWIiOjQsInBydiI6Ijg3ZTBhZjFlZjlmZDE1ODEyZmRlYzk3MTUzYTE0ZTBiMDQ3NTQ2YWEifQ.MgZZuGvu6EfYgr1vjLnwKw9aDg-iJCpjrVbBzT8fvLA&availability=true&order=desc&per_page=5&page=2",
					"protocol": "http",
					"host": [
						"127",
						"0",
						"0",
						"1"
					],
					"port": "8000",
					"path": [
						"api",
						"movies"
					],
					"query": [
						{
							"key": "token",
							"value": "eyJ0eXAiOiJKV1QiLCJhbGciOiJIUzI1NiJ9.eyJpc3MiOiJodHRwOlwvXC8xMjcuMC4wLjE6ODAwMFwvYXBpXC9sb2dpbiIsImlhdCI6MTU5MjI4NDc2NiwiZXhwIjoxNTkyMjg4MzY2LCJuYmYiOjE1OTIyODQ3NjYsImp0aSI6ImVvbnBpQ3BiU0NUbGhoQnEiLCJzdWIiOjQsInBydiI6Ijg3ZTBhZjFlZjlmZDE1ODEyZmRlYzk3MTUzYTE0ZTBiMDQ3NTQ2YWEifQ.MgZZuGvu6EfYgr1vjLnwKw9aDg-iJCpjrVbBzT8fvLA"
						},
						{
							"key": "availability",
							"value": "true"
						},
						{
							"key": "title",
							"value": "kimetsu",
							"disabled": true
						},
						{
							"key": "order",
							"value": "desc"
						},
						{
							"key": "per_page",
							"value": "5"
						},
						{
							"key": "page",
							"value": "2"
						}
					]
				}
			},
			"response": []
		},
		{
			"name": "get single movie",
			"request": {
				"method": "GET",
				"header": [],
				"url": {
					"raw": "http://127.0.0.1:8000/api/movies/2?token=eyJ0eXAiOiJKV1QiLCJhbGciOiJIUzI1NiJ9.eyJpc3MiOiJodHRwOlwvXC8xMjcuMC4wLjE6ODAwMFwvYXBpXC9sb2dpbiIsImlhdCI6MTU5MjExNDc3OCwiZXhwIjoxNTkyMTE4Mzc4LCJuYmYiOjE1OTIxMTQ3NzgsImp0aSI6IjlNVTRlRnhRMXlPNG5LNVMiLCJzdWIiOjQsInBydiI6Ijg3ZTBhZjFlZjlmZDE1ODEyZmRlYzk3MTUzYTE0ZTBiMDQ3NTQ2YWEifQ.RizAcJTXwV4ZkBAKrL4veVUNHReMhEsWVEdltHn8pFA",
					"protocol": "http",
					"host": [
						"127",
						"0",
						"0",
						"1"
					],
					"port": "8000",
					"path": [
						"api",
						"movies",
						"2"
					],
					"query": [
						{
							"key": "token",
							"value": "eyJ0eXAiOiJKV1QiLCJhbGciOiJIUzI1NiJ9.eyJpc3MiOiJodHRwOlwvXC8xMjcuMC4wLjE6ODAwMFwvYXBpXC9sb2dpbiIsImlhdCI6MTU5MjExNDc3OCwiZXhwIjoxNTkyMTE4Mzc4LCJuYmYiOjE1OTIxMTQ3NzgsImp0aSI6IjlNVTRlRnhRMXlPNG5LNVMiLCJzdWIiOjQsInBydiI6Ijg3ZTBhZjFlZjlmZDE1ODEyZmRlYzk3MTUzYTE0ZTBiMDQ3NTQ2YWEifQ.RizAcJTXwV4ZkBAKrL4veVUNHReMhEsWVEdltHn8pFA"
						}
					]
				}
			},
			"response": []
		},
		{
			"name": "update movie",
			"request": {
				"method": "PUT",
				"header": [],
				"body": {
					"mode": "raw",
					"raw": "  {\r\n\r\n    \"title\" : \"naruto the last movie\",\r\n    \"rental_price\" : 6,\r\n    \"availability\" : true\r\n   \r\n           \r\n}",
					"options": {
						"raw": {
							"language": "json"
						}
					}
				},
				"url": {
					"raw": "http://127.0.0.1:8000/api/movies/11?token=eyJ0eXAiOiJKV1QiLCJhbGciOiJIUzI1NiJ9.eyJpc3MiOiJodHRwOlwvXC8xMjcuMC4wLjE6ODAwMFwvYXBpXC9sb2dpbiIsImlhdCI6MTU5MjE4ODAyNywiZXhwIjoxNTkyMTkxNjI3LCJuYmYiOjE1OTIxODgwMjcsImp0aSI6IjRrb01NakZFNVNyWmJVZFEiLCJzdWIiOjQsInBydiI6Ijg3ZTBhZjFlZjlmZDE1ODEyZmRlYzk3MTUzYTE0ZTBiMDQ3NTQ2YWEifQ.Hx-GTIoPVFTxdJ23_ufgggbPlHDWJ_NlN6ytwK04yjM",
					"protocol": "http",
					"host": [
						"127",
						"0",
						"0",
						"1"
					],
					"port": "8000",
					"path": [
						"api",
						"movies",
						"11"
					],
					"query": [
						{
							"key": "token",
							"value": "eyJ0eXAiOiJKV1QiLCJhbGciOiJIUzI1NiJ9.eyJpc3MiOiJodHRwOlwvXC8xMjcuMC4wLjE6ODAwMFwvYXBpXC9sb2dpbiIsImlhdCI6MTU5MjE4ODAyNywiZXhwIjoxNTkyMTkxNjI3LCJuYmYiOjE1OTIxODgwMjcsImp0aSI6IjRrb01NakZFNVNyWmJVZFEiLCJzdWIiOjQsInBydiI6Ijg3ZTBhZjFlZjlmZDE1ODEyZmRlYzk3MTUzYTE0ZTBiMDQ3NTQ2YWEifQ.Hx-GTIoPVFTxdJ23_ufgggbPlHDWJ_NlN6ytwK04yjM"
						}
					]
				}
			},
			"response": []
		},
		{
			"name": "remove movie",
			"request": {
				"method": "PATCH",
				"header": [],
				"body": {
					"mode": "raw",
					"raw": "  {\r\n\r\n\r\n    \"availability\" : false\r\n   \r\n           \r\n}",
					"options": {
						"raw": {
							"language": "json"
						}
					}
				},
				"url": {
					"raw": "http://127.0.0.1:8000/api/movies/12?token=eyJ0eXAiOiJKV1QiLCJhbGciOiJIUzI1NiJ9.eyJpc3MiOiJodHRwOlwvXC8xMjcuMC4wLjE6ODAwMFwvYXBpXC9sb2dpbiIsImlhdCI6MTU5MjE4ODAyNywiZXhwIjoxNTkyMTkxNjI3LCJuYmYiOjE1OTIxODgwMjcsImp0aSI6IjRrb01NakZFNVNyWmJVZFEiLCJzdWIiOjQsInBydiI6Ijg3ZTBhZjFlZjlmZDE1ODEyZmRlYzk3MTUzYTE0ZTBiMDQ3NTQ2YWEifQ.Hx-GTIoPVFTxdJ23_ufgggbPlHDWJ_NlN6ytwK04yjM",
					"protocol": "http",
					"host": [
						"127",
						"0",
						"0",
						"1"
					],
					"port": "8000",
					"path": [
						"api",
						"movies",
						"12"
					],
					"query": [
						{
							"key": "token",
							"value": "eyJ0eXAiOiJKV1QiLCJhbGciOiJIUzI1NiJ9.eyJpc3MiOiJodHRwOlwvXC8xMjcuMC4wLjE6ODAwMFwvYXBpXC9sb2dpbiIsImlhdCI6MTU5MjE4ODAyNywiZXhwIjoxNTkyMTkxNjI3LCJuYmYiOjE1OTIxODgwMjcsImp0aSI6IjRrb01NakZFNVNyWmJVZFEiLCJzdWIiOjQsInBydiI6Ijg3ZTBhZjFlZjlmZDE1ODEyZmRlYzk3MTUzYTE0ZTBiMDQ3NTQ2YWEifQ.Hx-GTIoPVFTxdJ23_ufgggbPlHDWJ_NlN6ytwK04yjM"
						}
					]
				}
			},
			"response": []
		},
		{
			"name": "delete movie",
			"request": {
				"method": "DELETE",
				"header": [],
				"body": {
					"mode": "raw",
					"raw": ""
				},
				"url": {
					"raw": "http://127.0.0.1:8000/api/movies/2?token=eyJ0eXAiOiJKV1QiLCJhbGciOiJIUzI1NiJ9.eyJpc3MiOiJodHRwOlwvXC8xMjcuMC4wLjE6ODAwMFwvYXBpXC9sb2dpbiIsImlhdCI6MTU5MjI5MDc5NSwiZXhwIjoxNTkyMjk0Mzk1LCJuYmYiOjE1OTIyOTA3OTUsImp0aSI6IlphbWpTa05mNEVYVWlUVnQiLCJzdWIiOjQsInBydiI6Ijg3ZTBhZjFlZjlmZDE1ODEyZmRlYzk3MTUzYTE0ZTBiMDQ3NTQ2YWEifQ.SU_eo6ncIAKAbzInv0zV8IXO0spxaQYdCaA2y7Wr1yg",
					"protocol": "http",
					"host": [
						"127",
						"0",
						"0",
						"1"
					],
					"port": "8000",
					"path": [
						"api",
						"movies",
						"2"
					],
					"query": [
						{
							"key": "token",
							"value": "eyJ0eXAiOiJKV1QiLCJhbGciOiJIUzI1NiJ9.eyJpc3MiOiJodHRwOlwvXC8xMjcuMC4wLjE6ODAwMFwvYXBpXC9sb2dpbiIsImlhdCI6MTU5MjI5MDc5NSwiZXhwIjoxNTkyMjk0Mzk1LCJuYmYiOjE1OTIyOTA3OTUsImp0aSI6IlphbWpTa05mNEVYVWlUVnQiLCJzdWIiOjQsInBydiI6Ijg3ZTBhZjFlZjlmZDE1ODEyZmRlYzk3MTUzYTE0ZTBiMDQ3NTQ2YWEifQ.SU_eo6ncIAKAbzInv0zV8IXO0spxaQYdCaA2y7Wr1yg"
						}
					]
				}
			},
			"response": []
		},
		{
			"name": "rent a movie",
			"request": {
				"method": "POST",
				"header": [],
				"body": {
					"mode": "raw",
					"raw": "{\r\n\t\"start_date\" : \"2020-06-14\",\r\n\t\"end_date\" : \"2020-06-17\",\r\n\t\"qty\" : 1,\r\n\t\"total_amount\" : 6,\r\n\t\"client_id\" : 2,\r\n\t\"movie_id\" : 3\r\n}",
					"options": {
						"raw": {
							"language": "json"
						}
					}
				},
				"url": {
					"raw": "http://127.0.0.1:8000/api/rentals?token=eyJ0eXAiOiJKV1QiLCJhbGciOiJIUzI1NiJ9.eyJpc3MiOiJodHRwOlwvXC8xMjcuMC4wLjE6ODAwMFwvYXBpXC9sb2dpbiIsImlhdCI6MTU5MjI5MDc5NSwiZXhwIjoxNTkyMjk0Mzk1LCJuYmYiOjE1OTIyOTA3OTUsImp0aSI6IlphbWpTa05mNEVYVWlUVnQiLCJzdWIiOjQsInBydiI6Ijg3ZTBhZjFlZjlmZDE1ODEyZmRlYzk3MTUzYTE0ZTBiMDQ3NTQ2YWEifQ.SU_eo6ncIAKAbzInv0zV8IXO0spxaQYdCaA2y7Wr1yg",
					"protocol": "http",
					"host": [
						"127",
						"0",
						"0",
						"1"
					],
					"port": "8000",
					"path": [
						"api",
						"rentals"
					],
					"query": [
						{
							"key": "token",
							"value": "eyJ0eXAiOiJKV1QiLCJhbGciOiJIUzI1NiJ9.eyJpc3MiOiJodHRwOlwvXC8xMjcuMC4wLjE6ODAwMFwvYXBpXC9sb2dpbiIsImlhdCI6MTU5MjI5MDc5NSwiZXhwIjoxNTkyMjk0Mzk1LCJuYmYiOjE1OTIyOTA3OTUsImp0aSI6IlphbWpTa05mNEVYVWlUVnQiLCJzdWIiOjQsInBydiI6Ijg3ZTBhZjFlZjlmZDE1ODEyZmRlYzk3MTUzYTE0ZTBiMDQ3NTQ2YWEifQ.SU_eo6ncIAKAbzInv0zV8IXO0spxaQYdCaA2y7Wr1yg"
						}
					]
				}
			},
			"response": []
		},
		{
			"name": "purchase a movie",
			"request": {
				"method": "POST",
				"header": [],
				"body": {
					"mode": "raw",
					"raw": "\r\n{\r\n\t\"qty\": 2,\r\n\t\"client_id\": 2,\r\n\t\"movie_id\": 1\r\n}\r\n",
					"options": {
						"raw": {
							"language": "json"
						}
					}
				},
				"url": {
					"raw": "http://127.0.0.1:8000/api/purchases?token=eyJ0eXAiOiJKV1QiLCJhbGciOiJIUzI1NiJ9.eyJpc3MiOiJodHRwOlwvXC8xMjcuMC4wLjE6ODAwMFwvYXBpXC9sb2dpbiIsImlhdCI6MTU5MjI5MDc5NSwiZXhwIjoxNTkyMjk0Mzk1LCJuYmYiOjE1OTIyOTA3OTUsImp0aSI6IlphbWpTa05mNEVYVWlUVnQiLCJzdWIiOjQsInBydiI6Ijg3ZTBhZjFlZjlmZDE1ODEyZmRlYzk3MTUzYTE0ZTBiMDQ3NTQ2YWEifQ.SU_eo6ncIAKAbzInv0zV8IXO0spxaQYdCaA2y7Wr1yg",
					"protocol": "http",
					"host": [
						"127",
						"0",
						"0",
						"1"
					],
					"port": "8000",
					"path": [
						"api",
						"purchases"
					],
					"query": [
						{
							"key": "token",
							"value": "eyJ0eXAiOiJKV1QiLCJhbGciOiJIUzI1NiJ9.eyJpc3MiOiJodHRwOlwvXC8xMjcuMC4wLjE6ODAwMFwvYXBpXC9sb2dpbiIsImlhdCI6MTU5MjI5MDc5NSwiZXhwIjoxNTkyMjk0Mzk1LCJuYmYiOjE1OTIyOTA3OTUsImp0aSI6IlphbWpTa05mNEVYVWlUVnQiLCJzdWIiOjQsInBydiI6Ijg3ZTBhZjFlZjlmZDE1ODEyZmRlYzk3MTUzYTE0ZTBiMDQ3NTQ2YWEifQ.SU_eo6ncIAKAbzInv0zV8IXO0spxaQYdCaA2y7Wr1yg"
						}
					]
				}
			},
			"response": []
		},
		{
			"name": "get all rentals",
			"request": {
				"method": "GET",
				"header": [],
				"url": {
					"raw": "http://127.0.0.1:8000/api/rentals?token=eyJ0eXAiOiJKV1QiLCJhbGciOiJIUzI1NiJ9.eyJpc3MiOiJodHRwOlwvXC8xMjcuMC4wLjE6ODAwMFwvYXBpXC9sb2dpbiIsImlhdCI6MTU5MjI5MDc5NSwiZXhwIjoxNTkyMjk0Mzk1LCJuYmYiOjE1OTIyOTA3OTUsImp0aSI6IlphbWpTa05mNEVYVWlUVnQiLCJzdWIiOjQsInBydiI6Ijg3ZTBhZjFlZjlmZDE1ODEyZmRlYzk3MTUzYTE0ZTBiMDQ3NTQ2YWEifQ.SU_eo6ncIAKAbzInv0zV8IXO0spxaQYdCaA2y7Wr1yg",
					"protocol": "http",
					"host": [
						"127",
						"0",
						"0",
						"1"
					],
					"port": "8000",
					"path": [
						"api",
						"rentals"
					],
					"query": [
						{
							"key": "token",
							"value": "eyJ0eXAiOiJKV1QiLCJhbGciOiJIUzI1NiJ9.eyJpc3MiOiJodHRwOlwvXC8xMjcuMC4wLjE6ODAwMFwvYXBpXC9sb2dpbiIsImlhdCI6MTU5MjI5MDc5NSwiZXhwIjoxNTkyMjk0Mzk1LCJuYmYiOjE1OTIyOTA3OTUsImp0aSI6IlphbWpTa05mNEVYVWlUVnQiLCJzdWIiOjQsInBydiI6Ijg3ZTBhZjFlZjlmZDE1ODEyZmRlYzk3MTUzYTE0ZTBiMDQ3NTQ2YWEifQ.SU_eo6ncIAKAbzInv0zV8IXO0spxaQYdCaA2y7Wr1yg"
						}
					]
				}
			},
			"response": []
		},
		{
			"name": "get purchases",
			"request": {
				"method": "GET",
				"header": [],
				"url": {
					"raw": "http://127.0.0.1:8000/api/purchases?token=eyJ0eXAiOiJKV1QiLCJhbGciOiJIUzI1NiJ9.eyJpc3MiOiJodHRwOlwvXC8xMjcuMC4wLjE6ODAwMFwvYXBpXC9sb2dpbiIsImlhdCI6MTU5MjI5MDc5NSwiZXhwIjoxNTkyMjk0Mzk1LCJuYmYiOjE1OTIyOTA3OTUsImp0aSI6IlphbWpTa05mNEVYVWlUVnQiLCJzdWIiOjQsInBydiI6Ijg3ZTBhZjFlZjlmZDE1ODEyZmRlYzk3MTUzYTE0ZTBiMDQ3NTQ2YWEifQ.SU_eo6ncIAKAbzInv0zV8IXO0spxaQYdCaA2y7Wr1yg",
					"protocol": "http",
					"host": [
						"127",
						"0",
						"0",
						"1"
					],
					"port": "8000",
					"path": [
						"api",
						"purchases"
					],
					"query": [
						{
							"key": "token",
							"value": "eyJ0eXAiOiJKV1QiLCJhbGciOiJIUzI1NiJ9.eyJpc3MiOiJodHRwOlwvXC8xMjcuMC4wLjE6ODAwMFwvYXBpXC9sb2dpbiIsImlhdCI6MTU5MjI5MDc5NSwiZXhwIjoxNTkyMjk0Mzk1LCJuYmYiOjE1OTIyOTA3OTUsImp0aSI6IlphbWpTa05mNEVYVWlUVnQiLCJzdWIiOjQsInBydiI6Ijg3ZTBhZjFlZjlmZDE1ODEyZmRlYzk3MTUzYTE0ZTBiMDQ3NTQ2YWEifQ.SU_eo6ncIAKAbzInv0zV8IXO0spxaQYdCaA2y7Wr1yg"
						}
					]
				}
			},
			"response": []
		},
		{
			"name": "like",
			"request": {
				"method": "POST",
				"header": [],
				"body": {
					"mode": "raw",
					"raw": "{\r\n    \"user_id\" : 6,\r\n    \"movie_id\" : 11\r\n}",
					"options": {
						"raw": {
							"language": "json"
						}
					}
				},
				"url": {
					"raw": "http://127.0.0.1:8000/api/like?token=eyJ0eXAiOiJKV1QiLCJhbGciOiJIUzI1NiJ9.eyJpc3MiOiJodHRwOlwvXC8xMjcuMC4wLjE6ODAwMFwvYXBpXC9sb2dpbiIsImlhdCI6MTU5MjE5NDIxMSwiZXhwIjoxNTkyMTk3ODExLCJuYmYiOjE1OTIxOTQyMTEsImp0aSI6IlMwbGlXVmdMRnQwZ3hEdDkiLCJzdWIiOjQsInBydiI6Ijg3ZTBhZjFlZjlmZDE1ODEyZmRlYzk3MTUzYTE0ZTBiMDQ3NTQ2YWEifQ.x9D-UBVnyEIq0Y38xD2inm1CULtJHCD9qjiod4WLCck",
					"protocol": "http",
					"host": [
						"127",
						"0",
						"0",
						"1"
					],
					"port": "8000",
					"path": [
						"api",
						"like"
					],
					"query": [
						{
							"key": "token",
							"value": "eyJ0eXAiOiJKV1QiLCJhbGciOiJIUzI1NiJ9.eyJpc3MiOiJodHRwOlwvXC8xMjcuMC4wLjE6ODAwMFwvYXBpXC9sb2dpbiIsImlhdCI6MTU5MjE5NDIxMSwiZXhwIjoxNTkyMTk3ODExLCJuYmYiOjE1OTIxOTQyMTEsImp0aSI6IlMwbGlXVmdMRnQwZ3hEdDkiLCJzdWIiOjQsInBydiI6Ijg3ZTBhZjFlZjlmZDE1ODEyZmRlYzk3MTUzYTE0ZTBiMDQ3NTQ2YWEifQ.x9D-UBVnyEIq0Y38xD2inm1CULtJHCD9qjiod4WLCck"
						},
						{
							"key": "client_id",
							"value": "5",
							"disabled": true
						},
						{
							"key": "movie_id",
							"value": "11",
							"disabled": true
						}
					]
				}
			},
			"response": []
		},
		{
			"name": "get auth user",
			"request": {
				"method": "GET",
				"header": [],
				"url": {
					"raw": "http://127.0.0.1:8000/api/user?email=admin@gmail.com&password=123456&token=eyJ0eXAiOiJKV1QiLCJhbGciOiJIUzI1NiJ9.eyJpc3MiOiJodHRwOlwvXC8xMjcuMC4wLjE6ODAwMFwvYXBpXC9sb2dpbiIsImlhdCI6MTU5MjA4MTMwMywiZXhwIjoxNTkyMDg0OTAzLCJuYmYiOjE1OTIwODEzMDMsImp0aSI6IjNuRmllcDhVcE1kN0NyODUiLCJzdWIiOjE5LCJwcnYiOiI4N2UwYWYxZWY5ZmQxNTgxMmZkZWM5NzE1M2ExNGUwYjA0NzU0NmFhIn0.zvSEaN2zc_QLvfIVDQl1mIh_cd3Mjlz8rQ00ySthBiU",
					"protocol": "http",
					"host": [
						"127",
						"0",
						"0",
						"1"
					],
					"port": "8000",
					"path": [
						"api",
						"user"
					],
					"query": [
						{
							"key": "email",
							"value": "admin@gmail.com"
						},
						{
							"key": "password",
							"value": "123456"
						},
						{
							"key": "token",
							"value": "eyJ0eXAiOiJKV1QiLCJhbGciOiJIUzI1NiJ9.eyJpc3MiOiJodHRwOlwvXC8xMjcuMC4wLjE6ODAwMFwvYXBpXC9sb2dpbiIsImlhdCI6MTU5MjA4MTMwMywiZXhwIjoxNTkyMDg0OTAzLCJuYmYiOjE1OTIwODEzMDMsImp0aSI6IjNuRmllcDhVcE1kN0NyODUiLCJzdWIiOjE5LCJwcnYiOiI4N2UwYWYxZWY5ZmQxNTgxMmZkZWM5NzE1M2ExNGUwYjA0NzU0NmFhIn0.zvSEaN2zc_QLvfIVDQl1mIh_cd3Mjlz8rQ00ySthBiU"
						}
					]
				}
			},
			"response": []
		}
	],
	"protocolProfileBehavior": {}
}